Assignment 1
…
We are told that we have two influential observations. We can arrange() the Response_Time so that the largest Response times appear at the top of our tibble.

q1_data_tidied %>% 
  group_by(Response_Time) %>% 
  arrange(-Response_Time)

## # A tibble: 574 x 4
## # Groups:   Response_Time [488]
##    Subject Item  Context  Response_Time
##    <fct>   <fct> <fct>            <dbl>
##  1 S24     I22   Positive          5240
##  2 S8      I10   Negative          4613
##  3 S11     I11   Neutral           3561
##  4 S14     I10   Negative          3148
##  5 S10     I11   Positive          3049
##  6 S10     I5    Positive          2964
##  7 S8      I14   Neutral           2877
##  8 S24     I12   Neutral           2837
##  9 S10     I16   Neutral           2659
## 10 S21     I15   Neutral           2556
## # ... with 564 more rows
…
We are told that we have two influential observations. We can arrange() the RT so that the largest reaction times appear at the top of our tibble.

q2_data_tidied %>% 
  group_by(RT) %>% 
  arrange(-RT)

## # A tibble: 909 x 5
## # Groups:   RT [753]
##    Subject Vignette StoryEmotion FaceExpression    RT
##    <fct>   <fct>    <fct>        <fct>          <dbl>
##  1 38      9        Anger        Fear            9652
##  2 38      1        Anger        Fear            9652
##  3 50      11       Anger        Fear            9652
##  4 72      6        Anger        Fear            9652
##  5 71      16       Anger        Fear            9652
##  6 38      7        Anger        Fear            9652
##  7 71      8        Anger        Fear            9652
##  8 72      8        Anger        Fear            9652
##  9 51      26       Fear         Anger           9479
## 10 72      28       Fear         Anger           9479
## # ... with 899 more rows
…
